…
### 12. Are there journals which are particularly correlated with including lessons for the present/future?

Of the journals with 10 or more entries in our database, the following journals have the highest proportion of papers with recommendations for the present or future. However, only Climate and American Literature has a significantly higher proportion of recommendations than the average for all papers, after correcting for multiple comparisons.



::: {.cell}
::: {.cell-output .cell-output-stdout}

```
# A tibble: 29 × 7
   journal                  n_papers n_recs prop_recs    pval  p_adj significant
   <chr>                       <int>  <int>     <dbl>   <dbl>  <dbl> <lgl>      
 1 Climate and American Li…       19      9     0.474 0.00155 0.0449 TRUE       
 2 Proceedings of the Nati…       39     12     0.308 0.0265  0.192  FALSE      
 3 Global and Planetary Ch…       20      6     0.3   0.122   0.393  FALSE      
 4 Nature                         10      3     0.3   0.214   0.402  FALSE      
 5 Nature Communications          10      3     0.3   0.214   0.402  FALSE      
 6 Environmental Research …       11      3     0.273 0.403   0.556  FALSE      
 7 Geophysical Research Le…       24      6     0.25  0.265   0.404  FALSE      
 8 Climate Changes in the …       14      3     0.214 0.488   0.643  FALSE      
 9 Climate Change and Huma…       10      2     0.2   0.671   0.695  FALSE      
10 Climatic Change                25      5     0.2   0.588   0.682  FALSE      
# ℹ 19 more rows
```
…
